{
  "cviceni": {
    "version": {
      "global": "<%= version %>",
      "content": 1
    },
    "language": "cs",
    "katalog": ["test"],
    "slug": "co-umoznil-fonograf",
    "nazev": "Co umožnil fonograf?",
    "autor": [
      "Pavla Sýkorová"
    ],
    "klicovaSlova": [
      "technika", "medialita", "vztah k minulosti", "formulujeme hypotézu"
    ],
    "casovaOsa": {
      "roky": [
        1882
      ],
      "epocha": {
        "ceska": ["habsburská monarchie a její rozpad"]
      }
    },
    "anotace": {
      "ucitel": "Cvičení prostřednictvím reklamního plakátu ukazuje fonograf jako přelomový vynález. Žáci zkoumají, o jaký šlo přístroj, k čemu se používal a co nového do společnosti přinesl. Zamýšlí se, k čemu by využili fonograf na konci 19. století oni. Cvičení lze použít k dokreslení vývoje techniky nahrávání a reprodukování zvuku i zaznamenávání současnosti pro budoucnost.",
      "verejna": "Zajímá vás, jak vypadala reklama na konci 19. století? Zadívejte se na plakát propagující fonograf. Zjistěte, co nového umožnil. Jak byste tehdejší přelomový vynález využili vy?"
    },
    "obtiznost": "nizka",
    "trvani": 20,
    "funkce": [
      "lupa",
      "text",
      "svg",
      "znacky",
      "audio"
    ],
    "pdf": {
      "doporucenyPostup": "co-umoznil-fonograf.pdf"
    },
    "uvodniObrazek": "co-umoznil-fonograf/pic-00-1024h.jpg",
    "id": 101
  },
  "slajd": [
    {
      "zadani": {
        "hlavni": "Prohlédněte si plakát.",
        "rozsirujici": ""
      },
      "napoveda": {
        "aktivity": [
          "lupa"
        ],
        "text": "Při kliknutí levým tlačítkem do obrazu lupa přiblíží část obrazu ve výřezu."
      },
      "prameny": [
        "co-umoznil-fonograf/pic-00-1024h.jpg"
      ],
      "popisky": [
        "A. Jackson: The Edison Gem Phonograph [chromolitografie], 1882. Zdroj: UPM Praha"
      ]
    },
    {
      "class": [
        "half-slide-previous"
      ],
      "zadani": {
        "hlavni": "Označte důležité prvky na plakátu a popište je.",
        "rozsirujici": ""
      },
      "napoveda": {
        "aktivity": [
          "svg"
        ],
        "text": "Tahem myši levým tlačítkem kreslíte do obrazu. Nakliknutím na nakreslený tvar pravým tlačítkem otevřete menu s nabídkou úkonů: změnit barvu tvaru, (T) doplnit textový komentář, (X) smazat nakliknutý objekt."
      },
      "svg": {
        "soubory": [
          {
            "id": "svg-1",
            "soubor": "co-umoznil-fonograf/pic-00-1024h.jpg",
            "funkce": [
              "text",
              "znacky"
            ]
          }
        ]
      },
      "popisky": [
        "A. Jackson: The Edison Gem Phonograph [chromolitografie], 1882. Zdroj: UPM Praha"
      ]
    },
    {
      "class": [
        "half-slide-active"
      ],
      "zadani": {
        "hlavni": "Co plakát propaguje?",
        "rozsirujici": ""
      },
      "napoveda": {
        "aktivity": [
          "text"
        ],
        "text": "Do boxu pro text zapisujete odpověď na otázku, nebo jiný komentář (dle zadání)."
      },
      "uzivatelskyText": {
        "otazky": [
          {
            "id": "otazka-1",
            "zadani": "",
            "instrukce": "Myslím si, že…",
            "minDelka": 2,
            "maxDelka": 400
          }
        ]
      }
    },
    {
      "class": [
        "half-slide-previous"
      ],
      "zadani": {
        "hlavni": "Prozkoumejte další prameny. Nově zjištěné informace doplňte do plakátu červeně.",
        "rozsirujici": ""
      },
      "napoveda": {
        "aktivity": [
          "svg"
        ],
        "text": "Tahem myši levým tlačítkem kreslíte do obrazu. Nakliknutím na nakreslený tvar pravým tlačítkem otevřete menu s nabídkou úkonů: změnit barvu tvaru, (T) doplnit textový komentář, (X) smazat nakliknutý objekt."
      },
      "svg": {
        "nastaveni": {"layout": "galerie"},
        "galerie": [
          {
            "soubor": "co-umoznil-fonograf/pic-01-1024h.jpg",
            "popisek": "Besedy lidu, 1894. Zdroj: Digitalizovaný archiv NK ČR"
          },
          {
            "soubor": "co-umoznil-fonograf/pic-02-1280w.jpg",
            "popisek": "Český svět , 24. února 1911. Zdroj: Digitalizovaný archiv NK ČR"
          },
          {
            "soubor": "co-umoznil-fonograf/video-00.mp4",
            "popisek": "Zdroj: Danmarks Tekniske Museum"
          },
          {
            "soubor": "co-umoznil-fonograf/audio-00.mp3",
            "nazev": "Edison vypráví o první náhrávce na světě",
            "popisek": "Thomas Edison: Marry had a Little Lamb [zvukový záznam z fonografu], 1877. Zdroj: Wikimedia",
            "prepis": "text-00"
          }
        ],
        "soubory": [
          {
            "id": "svg-2",
            "duplikovat": ["svg-1"],
            "barvy": ["red", "blue"],
            "soubor": "co-umoznil-fonograf/pic-00-1024h.jpg",
            "funkce": [
              "text",
              "znacky"
            ]
          }
        ]
      },
      "popisky": [
        "A. Jackson: The Edison Gem Phonograph [chromolitografie], 1882. Zdroj: UPM Praha"
      ]
    },
    {
      "class": [
        "half-slide-active"
      ],
      "zadani": {
        "hlavni": "Odpovězte na otázky.",
        "rozsirujici": ""
      },
      "napoveda": {
        "aktivity": [
          "text"
        ],
        "text": "Do boxu pro text zapisujete odpověď na otázku, nebo jiný komentář (dle zadání)."
      },
      "uzivatelskyText": {
        "otazky": [
          {
            "id": "otazka-2",
            "zadani": "Co nového umožnil fonograf?",
            "instrukce": "Myslím si, že…",
            "minDelka": 2,
            "maxDelka": 400
          },
          {
            "id": "otazka-3",
            "zadani": "Jaký zvukový záznam byste na konci 19. století pořídili vy a proč?",
            "instrukce": "Myslím si, že…",
            "minDelka": 2,
            "maxDelka": 400
          }
        ]
      }
    }
  ]
}
