{
  "cviceni": {
    "version": {
      "global": "<%= version %>",
      "content": 2
    },
    "language": "cs",
    "katalog": [
      "public",
      "test"
    ],
    "id": 5,
    "slug": "proc-zaci-psali-rezoluci",
    "nazev": "Proč žáci psali rezoluci?",
    "autor": ["Kamil Činátl"],
    "casovaOsa": {
      "roky": [
        1950
      ],
      "epocha": {
        "ceska": ["poválečná doba a nástup komunismu"]
      }
    },
    "klicovaSlova": [
      "Československo 50. léta",
      "politické procesy",
      "škola",
      "dobové perspektivy",
      "formulujeme hypotézu"
    ],
    "anotace": {
      "ucitel": "Cvičení pracuje s rezolucí k procesu s Miladou Horákovou, kterou podepsaly děti z Újezda u Vizovic v roce 1950. Pramen pochází z prostředí školy, kterému rozumí i současní žáci, což jim může usnadnit interpretaci.  Žáci se seznamují s dobovým propagandistickým jazykem zdola, v konkrétní praxi. Zaujímají perspektivu tehdejších dětí, které výzvu podepsaly, a snaží se formulovat hypotézy ohledně jejich postojů k podpisu rezoluce.",
      "verejna": "Začtěte se do krátké ale působivé výzvy, kterou podepsaly děti z Újezda u Vizovic v roce 1950. K čemu a proč žáci tamní školy připojili své podpisy?"
    },
    "obtiznost": "střední",
    "trvani": 30,
    "funkce": [
      "lupa",
      "cteni",
      "text",
      "text-editor",
      "svg",
      "kresleni"
    ],
    "pdf": {
      "doporucenyPostup": "proc-zaci-psali-rezoluci.pdf"
    },
    "uvodniObrazek": "proc-zaci-psali-rezoluci/pic-00-1024h.jpg"
  },
  "slajd": [
    {
      "zadani": {
        "hlavni": "Přečtěte si text.",
        "rozsirujici": ""
      },
      "napoveda": {
        "aktivity": ["lupa", "cteni"],
        "text": "Při kliknutí levým tlačítkem do obrazu lupa přiblíží část obrazu ve výřezu."
      },
      "textovyEditor": {
        "galerie": [
          {
            "soubor": "proc-zaci-psali-rezoluci/pic-00-1024h.jpg"
          }
        ],
        "texty": [
          {
            "id": 1,
            "text": "text-00",
            "funkce": "cteni"
          }
        ]
      },
      "popisky": ["Rezoluce k procesu s Miladou Horákovou. Zdroj: NA Praha"]
    },
    {
      "class": "half-slide-previous",
      "zadani": {
        "hlavni": "Co žáci vyjádřili svým podpisem?",
        "rozsirujici": "Označte v textu tři pasáže, které osvětlují význam rezoluce. Vybírejte z předznačených výrazů."
      },
      "napoveda": {
        "aktivity": ["text-editor"],
        "text": "Levým tlačítkem myši zabarvíte zvolené slovo nebo slovní spojení."
      },
      "textovyEditor": {
        "galerie": [
          {
            "soubor": "proc-zaci-psali-rezoluci/pic-00-1024h.jpg"
          }
        ],
        "texty": [
          {
            "id": 2,
            "text": "text-00",
            "funkce": "predznaceny",
            "predznaceni": [
              {
                "vyraz": "žádají, aby Státní soud potrestal co nejpřísněji rozvratníky"
              },
              {
                "vyraz": "chtějí přivolat nové Lidice"
              },
              {
                "vyraz": "Zapojili se mezi fašistobijce? Ne, jistě „nemohli!“"
              },
              {
                "vyraz": "My však prohlašujeme, že si republiku rozvracet nedáme"
              },
              {
                "vyraz": "každého podezřelého ohlásíme"
              },
              {
                "vyraz": "přejeme si, abychom nebyli vyrušováni z práce"
              },
              {
                "vyraz": "Nepoznamenalo nás dost šest let protektorátu?"
              }
            ]
          }
        ]
      },
      "popisky": ["Rezoluce k procesu s Miladou Horákovou. Zdroj: NA Praha"]
    },
    {
      "class": "half-slide-active",
      "zadani": {
        "hlavni": "Označte části rezoluce, které se vám zdají nesrozumitelné.",
        "rozsirujici": "Dopište k nim otázku či komentář."
      },
      "napoveda": {
        "aktivity": ["svg"],
        "text": "Tahem myši levým tlačítkem kreslíte do obrazu. Nakliknutím na nakreslený tvar pravým tlačítkem otevřete menu s nabídkou úkonů: změnit barvu tvaru, (T) doplnit textový komentář, (X) smazat nakliknutý objekt."
      },
      "svg": {
        "soubory": [
          {
            "id": "svg-1",
            "soubor": "proc-zaci-psali-rezoluci/pic-01-1024h.jpg",
            "funkce": ["text", "kresleni"],
            "barvy": ["blue"]
          }
        ]
      },
      "popisky": ["Rezoluce k procesu s Miladou Horákovou. Zdroj: NA Praha"]
    },
    {
      "class": "half-slide-previous",
      "zadani": {
        "hlavni": "Prozkoumejte další prameny. Nově zjištěné informace doplňte do rezoluce červeně.",
        "rozsirujici": "Dopište k nim otázku či komentář."
      },
      "napoveda": {
        "aktivity": ["svg"],
        "text": "Tahem myši levým tlačítkem kreslíte do obrazu. Nakliknutím na nakreslený tvar pravým tlačítkem otevřete menu s nabídkou úkonů: změnit barvu tvaru, (T) doplnit textový komentář, (X) smazat nakliknutý objekt."
      },
      "svg": {
        "nastaveni": {
          "layout": "velka-galerie"
        },
        "galerie": [
          {
            "soubor": "proc-zaci-psali-rezoluci/pic-02-1024h.jpg",
            "popisek": "Dálnopis Krajského výboru KSČ Gottwaldov Ústřednímu výboru KSČ v Praze, 6. a 8. listopadu 1950. Zdroj: NA Praha"
          },
          {
            "soubor": "proc-zaci-psali-rezoluci/pic-04-1024h.jpg",
            "popisek": "Na národní škole v Praze-Dejvicích připojily děti své podpisy na Stockholmskou výzvu. Tato výzva za jaderné odzbrojení byla součástí propagandistické kampaně zemí Sovětského bloku. 31. května 1950. Foto Jiří Rublič. Zdroj: ČTK"
          },
          {
            "soubor": "proc-zaci-psali-rezoluci/pic-03-1024h.jpg",
            "popisek": "Společná rezoluce pionýrů a příslušníků Sboru národní bezpečnosti zaslaná Státnímu soudu v Praze. Zdroj: NA Praha"
          }
        ],
        "soubory": [
          {
            "id": "svg-2",
            "duplikovat": ["svg-1"],
            "barvy": ["red", "blue"],
            "soubor": "proc-zaci-psali-rezoluci/pic-01-1024h.jpg",
            "funkce": ["text", "kresleni"]
          }
        ]
      },
      "popisky": ["Rezoluce k procesu s Miladou Horákovou. Zdroj: NA Praha"]
    },
    {
      "class": "half-slide-active",
      "zadani": {
        "hlavni": "Zodpovězte otázky.",
        "rozsirujici": ""
      },
      "napoveda": {
        "aktivity": ["text"],
        "text": "Do boxu pro text zapisujete odpověď na otázku, nebo jiný komentář (dle zadání)."
      },
      "uzivatelskyText": {
        "otazky": [
          {
            "id": "otazka-1",
            "zadani": "Proč žáci psali rezoluci?",
            "instrukce": "Myslím si, že...",
            "minDelka": 10,
            "maxDelka": 400
          },
          {
            "id": "otazka-2",
            "zadani": "Na co byste se zeptali dětí, které rezoluci podepsaly?",
            "instrukce": "Moje otázky...",
            "minDelka": 10,
            "maxDelka": 400
          }
        ]
      }
    }
  ]
}
